<?xml version="1.0" encoding="UTF-8" standalone="no"?>
<!-- Created with Inkscape (http://www.inkscape.org/) -->

<svg
   xmlns:dc="http://purl.org/dc/elements/1.1/"
   xmlns:cc="http://creativecommons.org/ns#"
   xmlns:rdf="http://www.w3.org/1999/02/22-rdf-syntax-ns#"
   xmlns:svg="http://www.w3.org/2000/svg"
   xmlns="http://www.w3.org/2000/svg"
   xmlns:sodipodi="http://sodipodi.sourceforge.net/DTD/sodipodi-0.dtd"
   xmlns:inkscape="http://www.inkscape.org/namespaces/inkscape"
   id="svg15219"
   version="1.1"
   inkscape:version="0.91 r13725"
   xml:space="preserve"
   width="650.12024"
   height="339.40924"
   viewBox="0 0 650.12025 339.40924"
   sodipodi:docname="branches2.svg"><metadata
     id="metadata15225"><rdf:RDF><cc:Work
         rdf:about=""><dc:format>image/svg+xml</dc:format><dc:type
           rdf:resource="http://purl.org/dc/dcmitype/StillImage" /><dc:title /></cc:Work></rdf:RDF></metadata><defs
     id="defs15223"><marker
       inkscape:isstock="true"
       style="overflow:visible;"
       id="marker4910"
       refX="0.0"
       refY="0.0"
       orient="auto"
       inkscape:stockid="Arrow1Lend"><path
         transform="scale(0.8) rotate(180) translate(12.5,0)"
         style="fill-rule:evenodd;stroke:#000000;stroke-width:1pt;stroke-opacity:1;fill:#000000;fill-opacity:1"
         d="M 0.0,0.0 L 5.0,-5.0 L -12.5,0.0 L 5.0,5.0 L 0.0,0.0 z "
         id="path4912" /></marker><marker
       inkscape:isstock="true"
       style="overflow:visible;"
       id="marker4906"
       refX="0.0"
       refY="0.0"
       orient="auto"
       inkscape:stockid="Arrow1Lend"><path
         transform="scale(0.8) rotate(180) translate(12.5,0)"
         style="fill-rule:evenodd;stroke:#000000;stroke-width:1pt;stroke-opacity:1;fill:#000000;fill-opacity:1"
         d="M 0.0,0.0 L 5.0,-5.0 L -12.5,0.0 L 5.0,5.0 L 0.0,0.0 z "
         id="path4908" /></marker><marker
       inkscape:isstock="true"
       style="overflow:visible;"
       id="marker4902"
       refX="0.0"
       refY="0.0"
       orient="auto"
       inkscape:stockid="Arrow1Lend"><path
         transform="scale(0.8) rotate(180) translate(12.5,0)"
         style="fill-rule:evenodd;stroke:#000000;stroke-width:1pt;stroke-opacity:1;fill:#000000;fill-opacity:1"
         d="M 0.0,0.0 L 5.0,-5.0 L -12.5,0.0 L 5.0,5.0 L 0.0,0.0 z "
         id="path4904" /></marker><marker
       inkscape:isstock="true"
       style="overflow:visible;"
       id="marker4898"
       refX="0.0"
       refY="0.0"
       orient="auto"
       inkscape:stockid="Arrow1Lend"><path
         transform="scale(0.8) rotate(180) translate(12.5,0)"
         style="fill-rule:evenodd;stroke:#000000;stroke-width:1pt;stroke-opacity:1;fill:#000000;fill-opacity:1"
         d="M 0.0,0.0 L 5.0,-5.0 L -12.5,0.0 L 5.0,5.0 L 0.0,0.0 z "
         id="path4900" /></marker><marker
       inkscape:isstock="true"
       style="overflow:visible;"
       id="marker4894"
       refX="0.0"
       refY="0.0"
       orient="auto"
       inkscape:stockid="Arrow1Lend"><path
         transform="scale(0.8) rotate(180) translate(12.5,0)"
         style="fill-rule:evenodd;stroke:#000000;stroke-width:1pt;stroke-opacity:1;fill:#000000;fill-opacity:1"
         d="M 0.0,0.0 L 5.0,-5.0 L -12.5,0.0 L 5.0,5.0 L 0.0,0.0 z "
         id="path4896" /></marker><marker
       inkscape:stockid="Arrow1Lend"
       orient="auto"
       refY="0.0"
       refX="0.0"
       id="marker4891"
       style="overflow:visible;"
       inkscape:isstock="true"
       inkscape:collect="always"><path
         id="path4178"
         d="M 0.0,0.0 L 5.0,-5.0 L -12.5,0.0 L 5.0,5.0 L 0.0,0.0 z "
         style="fill-rule:evenodd;stroke:#000000;stroke-width:1pt;stroke-opacity:1;fill:#000000;fill-opacity:1"
         transform="scale(0.8) rotate(180) translate(12.5,0)" /></marker><marker
       inkscape:isstock="true"
       style="overflow:visible"
       id="marker20207"
       refX="0"
       refY="0"
       orient="auto"
       inkscape:stockid="Arrow1Lend"><path
         transform="matrix(-0.8,0,0,-0.8,-10,0)"
         style="fill:#000000;fill-opacity:1;fill-rule:evenodd;stroke:#000000;stroke-width:1pt;stroke-opacity:1"
         d="M 0,0 5,-5 -12.5,0 5,5 0,0 Z"
         id="path20209"
         inkscape:connector-curvature="0" /></marker><marker
       inkscape:stockid="Arrow1Lend"
       orient="auto"
       refY="0"
       refX="0"
       id="Arrow1Lend"
       style="overflow:visible"
       inkscape:isstock="true"><path
         id="path4161"
         d="M 0,0 5,-5 -12.5,0 5,5 0,0 Z"
         style="fill:#fd6f34;fill-opacity:1;fill-rule:evenodd;stroke:#fd6f34;stroke-width:1pt;stroke-opacity:1"
         transform="matrix(-0.8,0,0,-0.8,-10,0)"
         inkscape:connector-curvature="0" /></marker></defs><sodipodi:namedview
     pagecolor="#ffffff"
     bordercolor="#666666"
     borderopacity="1"
     objecttolerance="10"
     gridtolerance="10"
     guidetolerance="10"
     inkscape:pageopacity="0"
     inkscape:pageshadow="2"
     inkscape:window-width="1920"
     inkscape:window-height="1021"
     id="namedview15221"
     showgrid="true"
     fit-margin-top="0"
     fit-margin-left="0"
     fit-margin-right="0"
     fit-margin-bottom="0"
     inkscape:zoom="0.983342"
     inkscape:cx="279.86521"
     inkscape:cy="169.70461"
     inkscape:window-x="-4"
     inkscape:window-y="30"
     inkscape:window-maximized="1"
     inkscape:current-layer="g15227"><inkscape:grid
       type="xygrid"
       id="grid16064"
       originx="-140"
       originy="-3.207755e-06" /></sodipodi:namedview><g
     id="g15227"
     inkscape:groupmode="layer"
     inkscape:label="branches2"
     transform="matrix(1.25,0,0,-1.25,-140.00125,339.40875)"><g
       transform="matrix(1,0,0,-1,0,271.52661)"
       id="g15235"><path
         inkscape:connector-curvature="0"
         id="path15237"
         style="fill:#00e7ff;fill-opacity:1;fill-rule:evenodd;stroke:#000000;stroke-width:1.60000002;stroke-linecap:butt;stroke-linejoin:miter;stroke-miterlimit:4;stroke-dasharray:none;stroke-opacity:1"
         d="m 460.148,216.758 47.047,0 c 6.289,0 11.352,5.062 11.352,11.351 l 0,31.27 c 0,6.285 -5.063,11.348 -11.352,11.348 l -47.047,0 c -6.285,0 -11.347,-5.063 -11.347,-11.348 l 0,-31.27 c 0,-6.289 5.062,-11.351 11.347,-11.351 z" /></g><g
       transform="matrix(1,0,0,-1,0,271.52661)"
       id="g15239"><path
         inkscape:connector-curvature="0"
         id="path15241"
         style="fill:#00e7ff;fill-opacity:1;fill-rule:evenodd;stroke:#000000;stroke-width:1.60000002;stroke-linecap:butt;stroke-linejoin:miter;stroke-miterlimit:4;stroke-dasharray:none;stroke-opacity:1"
         d="m 348.148,216.758 47.047,0 c 6.289,0 11.352,5.062 11.352,11.351 l 0,31.27 c 0,6.285 -5.063,11.348 -11.352,11.348 l -47.047,0 c -6.285,0 -11.347,-5.063 -11.347,-11.348 l 0,-31.27 c 0,-6.289 5.062,-11.351 11.347,-11.351 z" /></g><g
       transform="matrix(1,0,0,-1,0,271.52661)"
       id="g15243"><path
         inkscape:connector-curvature="0"
         id="path15245"
         style="fill:#00e7ff;fill-opacity:1;fill-rule:evenodd;stroke:#000000;stroke-width:1.60000002;stroke-linecap:butt;stroke-linejoin:miter;stroke-miterlimit:4;stroke-dasharray:none;stroke-opacity:1"
         d="m 236.148,216.758 47.047,0 c 6.289,0 11.352,5.062 11.352,11.351 l 0,31.27 c 0,6.285 -5.063,11.348 -11.352,11.348 l -47.047,0 c -6.285,0 -11.347,-5.063 -11.347,-11.348 l 0,-31.27 c 0,-6.289 5.062,-11.351 11.347,-11.351 z" /></g><g
       transform="matrix(1,0,0,-1,0,271.52661)"
       id="g15247"><path
         inkscape:connector-curvature="0"
         id="path15249"
         style="fill:#00e7ff;fill-opacity:1;fill-rule:evenodd;stroke:#000000;stroke-width:1.60000002;stroke-linecap:butt;stroke-linejoin:miter;stroke-miterlimit:4;stroke-dasharray:none;stroke-opacity:1"
         d="m 124.148,216.758 47.047,0 c 6.289,0 11.352,5.062 11.352,11.351 l 0,31.27 c 0,6.285 -5.063,11.348 -11.352,11.348 l -47.047,0 c -6.285,0 -11.347,-5.063 -11.347,-11.348 l 0,-31.27 c 0,-6.289 5.062,-11.351 11.347,-11.351 z" /></g><text
       id="text15251"
       style="font-variant:normal;font-weight:normal;font-size:14px;font-family:'DejaVu Sans';-inkscape-font-specification:DejaVuSans;writing-mode:lr-tb;fill:#000000;fill-opacity:1;fill-rule:nonzero;stroke:none"
       transform="scale(1,-1)"
       x="6.1960168"
       y="-25.396837"><tspan
         id="tspan15253"
         sodipodi:role="line"
         y="-25.396837"
         x="6.1960168 15.100018 23.976017 32.880016 41.75602 49.442017 58.34602 118.14001 127.01601 135.89201 144.79602 152.48201 161.38602 170.33202 230.08401 238.98802 247.86401 256.76804 261.69601 270.60001 279.50403 342.19601 351.10001 359.97601 368.88 373.80801 382.71201 391.61603 454.15402 463.05801 471.96201 476.89001 485.79401 494.69803 502.42603">3b5bc3cbd9c49b0b3f90b0b3f90b41f16ce</tspan></text>
<g
       transform="matrix(1,0,0,-1,0,271.52661)"
       id="g15279"><path
         inkscape:connector-curvature="0"
         id="path15281"
         style="fill:#00e7ff;fill-opacity:1;fill-rule:evenodd;stroke:#000000;stroke-width:1.60000002;stroke-linecap:butt;stroke-linejoin:miter;stroke-miterlimit:4;stroke-dasharray:none;stroke-opacity:1"
         d="m 236.148,72.758 47.047,0 c 6.289,0 11.352,5.062 11.352,11.351 l 0,31.27 c 0,6.285 -5.063,11.348 -11.352,11.348 l -47.047,0 c -6.285,0 -11.347,-5.063 -11.347,-11.348 l 0,-31.27 c 0,-6.289 5.062,-11.351 11.347,-11.351 z" /></g><text
       id="text15283"
       style="font-variant:normal;font-weight:normal;font-size:14px;font-family:'DejaVu Sans';-inkscape-font-specification:DejaVuSans;writing-mode:lr-tb;fill:#000000;fill-opacity:1;fill-rule:nonzero;stroke:none"
       transform="scale(1,-1)"
       x="230.19601"
       y="-169.39684"><tspan
         id="tspan15285"
         sodipodi:role="line"
         y="-169.39684"
         x="230.19601 235.12402 244.02802 252.93202 261.83603 266.76401 275.66803">f061f93</tspan></text>
<g
       transform="matrix(1,0,0,-1,0,271.52661)"
       id="g15287"><path
         inkscape:connector-curvature="0"
         id="path15289"
         style="fill:#00e7ff;fill-opacity:1;fill-rule:evenodd;stroke:#000000;stroke-width:1.60000002;stroke-linecap:butt;stroke-linejoin:miter;stroke-miterlimit:4;stroke-dasharray:none;stroke-opacity:1"
         d="m 348.148,72.758 47.047,0 c 6.289,0 11.352,5.062 11.352,11.351 l 0,31.27 c 0,6.285 -5.063,11.348 -11.352,11.348 l -47.047,0 c -6.285,0 -11.347,-5.063 -11.347,-11.348 l 0,-31.27 c 0,-6.289 5.062,-11.351 11.347,-11.351 z" /></g><text
       id="text15291"
       style="font-variant:normal;font-weight:normal;font-size:14px;font-family:'DejaVu Sans';-inkscape-font-specification:DejaVuSans;writing-mode:lr-tb;fill:#000000;fill-opacity:1;fill-rule:nonzero;stroke:none"
       transform="scale(1,-1)"
       x="342.19601"
       y="-169.39684"><tspan
         id="tspan15293"
         sodipodi:role="line"
         y="-169.39684"
         x="342.19601 351.07202 356.00003 364.90402 373.80801 381.49402 390.39801">bf67c41</tspan></text>
<path
       inkscape:connector-curvature="0"
       id="path15327"
       style="fill:#fd6f34;fill-opacity:1;fill-rule:nonzero;stroke:none"
       d="m 556.78121,185.58127 75.316,0 0,-36.113 -75.316,0 0,36.113 z" /><text
       id="text15329"
       style="font-style:oblique;font-variant:normal;font-size:14px;font-family:'DejaVu Sans';-inkscape-font-specification:DejaVuSans-Oblique;writing-mode:lr-tb;fill:#000000;fill-opacity:1;fill-rule:nonzero;stroke:none"
       transform="scale(1,-1)"
       x="573.7821"
       y="-163.60568"><tspan
         id="tspan15331"
         sodipodi:role="line"
         y="-163.60568"
         x="573.7821 584.29608 593.13007 602.70605">HEAD</tspan></text>
<path
       inkscape:connector-curvature="0"
       id="path15333"
       style="fill:#fd6f34;fill-opacity:1;fill-rule:nonzero;stroke:none"
       d="m 556.33122,127.85022 75.316,0 0,-36.112996 -75.316,0 0,36.112996 z" /><text
       id="text15335"
       style="font-style:oblique;font-variant:normal;font-size:14px;font-family:'DejaVu Sans';-inkscape-font-specification:DejaVuSans-Oblique;writing-mode:lr-tb;fill:#000000;fill-opacity:1;fill-rule:nonzero;stroke:none"
       transform="scale(1,-1)"
       x="567.0553"
       y="-105.55812"><tspan
         id="tspan15337"
         sodipodi:role="line"
         y="-105.55812"
         x="567.0553 580.69128 589.25928 596.53931 602.02734 610.63733">master</tspan></text>
<g
       transform="matrix(1,0,0,-1,112,271.52661)"
       id="g15347"><path
         inkscape:connector-curvature="0"
         id="path15349"
         style="fill:none;stroke:#fd6f34;stroke-width:0.80000001;stroke-linecap:butt;stroke-linejoin:miter;stroke-miterlimit:4;stroke-dasharray:none;stroke-opacity:1"
         d="m 482.586,179.383 0.391,36.644" /></g><g
       transform="matrix(-0.0106013,1,1,0.0106013,112,271.52661)"
       id="g15351"><path
         inkscape:connector-curvature="0"
         id="path15353"
         style="fill:#fd6f34;fill-opacity:1;fill-rule:evenodd;stroke:#fd6f34;stroke-width:0.79995501;stroke-linecap:butt;stroke-linejoin:miter;stroke-miterlimit:4;stroke-dasharray:none;stroke-opacity:1"
         d="m -213.127,480.631 3.202,-3.2 -11.198,3.201 11.197,3.201 -3.201,-3.202 z" /></g><path
       inkscape:connector-curvature="0"
       id="path15355"
       style="fill:#fd6f34;fill-opacity:1;fill-rule:nonzero;stroke:none"
       d="m 334.75,271.527 75.316,0 0,-36.109 -75.316,0 0,36.109 z" /><text
       id="text15357"
       style="font-style:oblique;font-variant:normal;font-size:14px;font-family:'DejaVu Sans';-inkscape-font-specification:DejaVuSans-Oblique;writing-mode:lr-tb;fill:#000000;fill-opacity:1;fill-rule:nonzero;stroke:none"
       transform="scale(1,-1)"
       x="351.46616"
       y="-248.82858"><tspan
         id="tspan15359"
         sodipodi:role="line"
         y="-248.82858"
         x="351.46616 360.34216 368.95215 377.22617 385.83615">devel</tspan></text>
<g
       transform="matrix(1,0,0,-1,0,271.52661)"
       id="g15361"><path
         inkscape:connector-curvature="0"
         id="path15363"
         style="fill:none;stroke:#fd6f34;stroke-width:0.95999998;stroke-linecap:butt;stroke-linejoin:miter;stroke-miterlimit:4;stroke-dasharray:none;stroke-opacity:1"
         d="m 372.246,36.109 -0.332,36.649" /></g><g
       transform="matrix(0.00898563,1,1,-0.00898563,0,271.52661)"
       id="g15365"><path
         inkscape:connector-curvature="0"
         id="path15367"
         style="fill:#fd6f34;fill-opacity:1;fill-rule:evenodd;stroke:#fd6f34;stroke-width:0.959961;stroke-linecap:butt;stroke-linejoin:miter;stroke-miterlimit:4;stroke-dasharray:none;stroke-opacity:1"
         d="m -59.813,372.537 3.841,-3.839 -13.438,3.84 13.437,3.84 -3.84,-3.841 z" /></g><path
       style="display:inline;fill:none;fill-rule:evenodd;stroke:#fd6f34;stroke-width:0.95999998;stroke-linecap:butt;stroke-linejoin:miter;stroke-miterlimit:4;stroke-dasharray:none;stroke-opacity:1;marker-end:url(#Arrow1Lend)"
       d="M 593.51285,149.46827 592.001,119.99961"
       id="path16018"
       inkscape:connector-type="polyline"
       inkscape:connector-curvature="0"
       inkscape:connection-start="#path15327" /><g
       id="g20117"
       transform="matrix(1,0,0,-1,448,271.52661)"><path
         d="m 124.148,216.758 47.047,0 c 6.289,0 11.352,5.062 11.352,11.351 l 0,31.27 c 0,6.285 -5.063,11.348 -11.352,11.348 l -47.047,0 c -6.285,0 -11.347,-5.063 -11.347,-11.348 l 0,-31.27 c 0,-6.289 5.062,-11.351 11.347,-11.351 z"
         style="fill:#00e7ff;fill-opacity:1;fill-rule:evenodd;stroke:#000000;stroke-width:1.60000002;stroke-linecap:butt;stroke-linejoin:miter;stroke-miterlimit:4;stroke-dasharray:none;stroke-opacity:1"
         id="path20119"
         inkscape:connector-curvature="0" /></g><text
       y="-25.39683"
       x="566.19604"
       transform="scale(1,-1)"
       style="font-variant:normal;font-weight:normal;font-size:14px;font-family:'DejaVu Sans';-inkscape-font-specification:DejaVuSans;writing-mode:lr-tb;fill:#000000;fill-opacity:1;fill-rule:nonzero;stroke:none"
       id="text20241"><tspan
         sodipodi:role="line"
         id="tspan20243"
         x="566.19604"
         y="-25.39683">54fa32e</tspan></text>
<path
       style="fill:none;fill-rule:evenodd;stroke:#000000;stroke-width:0.80000001px;stroke-linecap:butt;stroke-linejoin:miter;stroke-opacity:1;marker-end:url(#marker4910)"
       d="m 560.801,27.78411 -42.254,0"
       id="path4875"
       inkscape:connector-type="polyline"
       inkscape:connector-curvature="0"
       inkscape:connection-start="#g20117"
       inkscape:connection-end="#g15235" /><path
       style="fill:none;fill-rule:evenodd;stroke:#000000;stroke-width:0.80000001px;stroke-linecap:butt;stroke-linejoin:miter;stroke-opacity:1;marker-end:url(#marker4891)"
       d="m 448.801,27.78411 -42.254,0"
       id="path4879"
       inkscape:connector-type="polyline"
       inkscape:connector-curvature="0"
       inkscape:connection-start="#g15235"
       inkscape:connection-end="#g15239" /><path
       style="fill:none;fill-rule:evenodd;stroke:#000000;stroke-width:0.80000001px;stroke-linecap:butt;stroke-linejoin:miter;stroke-opacity:1;marker-end:url(#marker4894)"
       d="m 336.801,27.78411 -42.254,0"
       id="path4881"
       inkscape:connector-type="polyline"
       inkscape:connector-curvature="0"
       inkscape:connection-start="#g15239"
       inkscape:connection-end="#g15243" /><path
       style="fill:none;fill-rule:evenodd;stroke:#000000;stroke-width:0.80000001px;stroke-linecap:butt;stroke-linejoin:miter;stroke-opacity:1;marker-end:url(#marker4898)"
       d="m 224.801,27.78411 -42.254,0"
       id="path4885"
       inkscape:connector-type="polyline"
       inkscape:connector-curvature="0"
       inkscape:connection-start="#g15243"
       inkscape:connection-end="#g15247" /><path
       style="fill:none;fill-rule:evenodd;stroke:#000000;stroke-width:0.80000001px;stroke-linecap:butt;stroke-linejoin:miter;stroke-opacity:1;marker-end:url(#marker4906)"
       d="m 336.801,171.78411 -42.254,0"
       id="path4887"
       inkscape:connector-type="polyline"
       inkscape:connector-curvature="0"
       inkscape:connection-start="#g15287"
       inkscape:connection-end="#g15279" /><path
       style="fill:none;fill-rule:evenodd;stroke:#000000;stroke-width:0.80000001px;stroke-linecap:butt;stroke-linejoin:miter;stroke-opacity:1;marker-end:url(#marker4902)"
       d="m 238.68606,144.79961 -70.02412,-90.031"
       id="path4889"
       inkscape:connector-type="polyline"
       inkscape:connector-curvature="0"
       inkscape:connection-start="#g15279"
       inkscape:connection-end="#g15247" /></g></svg>