<?xml version="1.0" encoding="UTF-8" standalone="no"?>
<!-- Created with Inkscape (http://www.inkscape.org/) -->

<svg
   xmlns:dc="http://purl.org/dc/elements/1.1/"
   xmlns:cc="http://creativecommons.org/ns#"
   xmlns:rdf="http://www.w3.org/1999/02/22-rdf-syntax-ns#"
   xmlns:svg="http://www.w3.org/2000/svg"
   xmlns="http://www.w3.org/2000/svg"
   xmlns:sodipodi="http://sodipodi.sourceforge.net/DTD/sodipodi-0.dtd"
   xmlns:inkscape="http://www.inkscape.org/namespaces/inkscape"
   id="svg15219"
   version="1.1"
   inkscape:version="0.91 r13725"
   xml:space="preserve"
   width="650.12024"
   height="339.40924"
   viewBox="0 0 650.12025 339.40924"
   sodipodi:docname="merge.svg"><metadata
     id="metadata15225"><rdf:RDF><cc:Work
         rdf:about=""><dc:format>image/svg+xml</dc:format><dc:type
           rdf:resource="http://purl.org/dc/dcmitype/StillImage" /><dc:title /></cc:Work></rdf:RDF></metadata><defs
     id="defs15223"><marker
       inkscape:isstock="true"
       style="overflow:visible;"
       id="marker6963"
       refX="0.0"
       refY="0.0"
       orient="auto"
       inkscape:stockid="Arrow1Lend"><path
         transform="scale(0.8) rotate(180) translate(12.5,0)"
         style="fill-rule:evenodd;stroke:#000000;stroke-width:1pt;stroke-opacity:1;fill:#000000;fill-opacity:1"
         d="M 0.0,0.0 L 5.0,-5.0 L -12.5,0.0 L 5.0,5.0 L 0.0,0.0 z "
         id="path6965" /></marker><marker
       inkscape:isstock="true"
       style="overflow:visible;"
       id="marker6959"
       refX="0.0"
       refY="0.0"
       orient="auto"
       inkscape:stockid="Arrow1Lend"><path
         transform="scale(0.8) rotate(180) translate(12.5,0)"
         style="fill-rule:evenodd;stroke:#000000;stroke-width:1pt;stroke-opacity:1;fill:#000000;fill-opacity:1"
         d="M 0.0,0.0 L 5.0,-5.0 L -12.5,0.0 L 5.0,5.0 L 0.0,0.0 z "
         id="path6961" /></marker><marker
       inkscape:isstock="true"
       style="overflow:visible;"
       id="marker6955"
       refX="0.0"
       refY="0.0"
       orient="auto"
       inkscape:stockid="Arrow1Lend"><path
         transform="scale(0.8) rotate(180) translate(12.5,0)"
         style="fill-rule:evenodd;stroke:#000000;stroke-width:1pt;stroke-opacity:1;fill:#000000;fill-opacity:1"
         d="M 0.0,0.0 L 5.0,-5.0 L -12.5,0.0 L 5.0,5.0 L 0.0,0.0 z "
         id="path6957" /></marker><marker
       inkscape:isstock="true"
       style="overflow:visible;"
       id="marker6951"
       refX="0.0"
       refY="0.0"
       orient="auto"
       inkscape:stockid="Arrow1Lend"><path
         transform="scale(0.8) rotate(180) translate(12.5,0)"
         style="fill-rule:evenodd;stroke:#000000;stroke-width:1pt;stroke-opacity:1;fill:#000000;fill-opacity:1"
         d="M 0.0,0.0 L 5.0,-5.0 L -12.5,0.0 L 5.0,5.0 L 0.0,0.0 z "
         id="path6953" /></marker><marker
       inkscape:isstock="true"
       style="overflow:visible;"
       id="marker6947"
       refX="0.0"
       refY="0.0"
       orient="auto"
       inkscape:stockid="Arrow1Lend"><path
         transform="scale(0.8) rotate(180) translate(12.5,0)"
         style="fill-rule:evenodd;stroke:#000000;stroke-width:1pt;stroke-opacity:1;fill:#000000;fill-opacity:1"
         d="M 0.0,0.0 L 5.0,-5.0 L -12.5,0.0 L 5.0,5.0 L 0.0,0.0 z "
         id="path6949" /></marker><marker
       inkscape:isstock="true"
       style="overflow:visible;"
       id="marker6943"
       refX="0.0"
       refY="0.0"
       orient="auto"
       inkscape:stockid="Arrow1Lend"><path
         transform="scale(0.8) rotate(180) translate(12.5,0)"
         style="fill-rule:evenodd;stroke:#000000;stroke-width:1pt;stroke-opacity:1;fill:#000000;fill-opacity:1"
         d="M 0.0,0.0 L 5.0,-5.0 L -12.5,0.0 L 5.0,5.0 L 0.0,0.0 z "
         id="path6945" /></marker><marker
       inkscape:stockid="Arrow1Lend"
       orient="auto"
       refY="0.0"
       refX="0.0"
       id="marker6940"
       style="overflow:visible;"
       inkscape:isstock="true"
       inkscape:collect="always"><path
         id="path4178"
         d="M 0.0,0.0 L 5.0,-5.0 L -12.5,0.0 L 5.0,5.0 L 0.0,0.0 z "
         style="fill-rule:evenodd;stroke:#000000;stroke-width:1pt;stroke-opacity:1;fill:#000000;fill-opacity:1"
         transform="scale(0.8) rotate(180) translate(12.5,0)" /></marker><marker
       inkscape:isstock="true"
       style="overflow:visible"
       id="marker21296"
       refX="0"
       refY="0"
       orient="auto"
       inkscape:stockid="Arrow1Lend"><path
         inkscape:connector-curvature="0"
         transform="matrix(-0.8,0,0,-0.8,-10,0)"
         style="fill:#fd6f34;fill-opacity:1;fill-rule:evenodd;stroke:#fd6f34;stroke-width:1pt;stroke-opacity:1"
         d="M 0,0 5,-5 -12.5,0 5,5 0,0 Z"
         id="path21298" /></marker><marker
       inkscape:isstock="true"
       style="overflow:visible"
       id="marker20207"
       refX="0"
       refY="0"
       orient="auto"
       inkscape:stockid="Arrow1Lend"><path
         transform="matrix(-0.8,0,0,-0.8,-10,0)"
         style="fill:#000000;fill-opacity:1;fill-rule:evenodd;stroke:#000000;stroke-width:1pt;stroke-opacity:1"
         d="M 0,0 5,-5 -12.5,0 5,5 0,0 Z"
         id="path20209"
         inkscape:connector-curvature="0" /></marker><marker
       inkscape:stockid="Arrow1Lend"
       orient="auto"
       refY="0"
       refX="0"
       id="Arrow1Lend"
       style="overflow:visible"
       inkscape:isstock="true"
       inkscape:collect="always"><path
         id="path4161"
         d="M 0,0 5,-5 -12.5,0 5,5 0,0 Z"
         style="fill:#fd6f34;fill-opacity:1;fill-rule:evenodd;stroke:#fd6f34;stroke-width:1pt;stroke-opacity:1"
         transform="matrix(-0.8,0,0,-0.8,-10,0)"
         inkscape:connector-curvature="0" /></marker></defs><sodipodi:namedview
     pagecolor="#ffffff"
     bordercolor="#666666"
     borderopacity="1"
     objecttolerance="10"
     gridtolerance="10"
     guidetolerance="10"
     inkscape:pageopacity="0"
     inkscape:pageshadow="2"
     inkscape:window-width="1920"
     inkscape:window-height="1021"
     id="namedview15221"
     showgrid="true"
     fit-margin-top="0"
     fit-margin-left="0"
     fit-margin-right="0"
     fit-margin-bottom="0"
     inkscape:zoom="0.983342"
     inkscape:cx="279.86521"
     inkscape:cy="169.70461"
     inkscape:window-x="-4"
     inkscape:window-y="30"
     inkscape:window-maximized="1"
     inkscape:current-layer="g15227"><inkscape:grid
       type="xygrid"
       id="grid16064"
       originx="-140"
       originy="-3.207755e-06" /></sodipodi:namedview><g
     id="g15227"
     inkscape:groupmode="layer"
     inkscape:label="branches2"
     transform="matrix(1.25,0,0,-1.25,-140.00125,339.40875)"><g
       transform="matrix(1,0,0,-1,0,271.52661)"
       id="g15235"><path
         inkscape:connector-curvature="0"
         id="path15237"
         style="fill:#00e7ff;fill-opacity:1;fill-rule:evenodd;stroke:#000000;stroke-width:1.60000002;stroke-linecap:butt;stroke-linejoin:miter;stroke-miterlimit:4;stroke-dasharray:none;stroke-opacity:1"
         d="m 460.148,216.758 47.047,0 c 6.289,0 11.352,5.062 11.352,11.351 l 0,31.27 c 0,6.285 -5.063,11.348 -11.352,11.348 l -47.047,0 c -6.285,0 -11.347,-5.063 -11.347,-11.348 l 0,-31.27 c 0,-6.289 5.062,-11.351 11.347,-11.351 z" /></g><g
       transform="matrix(1,0,0,-1,0,271.52661)"
       id="g15239"><path
         inkscape:connector-curvature="0"
         id="path15241"
         style="fill:#00e7ff;fill-opacity:1;fill-rule:evenodd;stroke:#000000;stroke-width:1.60000002;stroke-linecap:butt;stroke-linejoin:miter;stroke-miterlimit:4;stroke-dasharray:none;stroke-opacity:1"
         d="m 348.148,216.758 47.047,0 c 6.289,0 11.352,5.062 11.352,11.351 l 0,31.27 c 0,6.285 -5.063,11.348 -11.352,11.348 l -47.047,0 c -6.285,0 -11.347,-5.063 -11.347,-11.348 l 0,-31.27 c 0,-6.289 5.062,-11.351 11.347,-11.351 z" /></g><g
       transform="matrix(1,0,0,-1,0,271.52661)"
       id="g15243"><path
         inkscape:connector-curvature="0"
         id="path15245"
         style="fill:#00e7ff;fill-opacity:1;fill-rule:evenodd;stroke:#000000;stroke-width:1.60000002;stroke-linecap:butt;stroke-linejoin:miter;stroke-miterlimit:4;stroke-dasharray:none;stroke-opacity:1"
         d="m 236.148,216.758 47.047,0 c 6.289,0 11.352,5.062 11.352,11.351 l 0,31.27 c 0,6.285 -5.063,11.348 -11.352,11.348 l -47.047,0 c -6.285,0 -11.347,-5.063 -11.347,-11.348 l 0,-31.27 c 0,-6.289 5.062,-11.351 11.347,-11.351 z" /></g><g
       transform="matrix(1,0,0,-1,0,271.52661)"
       id="g15247"><path
         inkscape:connector-curvature="0"
         id="path15249"
         style="fill:#00e7ff;fill-opacity:1;fill-rule:evenodd;stroke:#000000;stroke-width:1.60000002;stroke-linecap:butt;stroke-linejoin:miter;stroke-miterlimit:4;stroke-dasharray:none;stroke-opacity:1"
         d="m 124.148,216.758 47.047,0 c 6.289,0 11.352,5.062 11.352,11.351 l 0,31.27 c 0,6.285 -5.063,11.348 -11.352,11.348 l -47.047,0 c -6.285,0 -11.347,-5.063 -11.347,-11.348 l 0,-31.27 c 0,-6.289 5.062,-11.351 11.347,-11.351 z" /></g><g
       transform="matrix(1,0,0,-1,0,271.52661)"
       id="g15279"><path
         inkscape:connector-curvature="0"
         id="path15281"
         style="fill:#00e7ff;fill-opacity:1;fill-rule:evenodd;stroke:#000000;stroke-width:1.60000002;stroke-linecap:butt;stroke-linejoin:miter;stroke-miterlimit:4;stroke-dasharray:none;stroke-opacity:1"
         d="m 236.148,72.758 47.047,0 c 6.289,0 11.352,5.062 11.352,11.351 l 0,31.27 c 0,6.285 -5.063,11.348 -11.352,11.348 l -47.047,0 c -6.285,0 -11.347,-5.063 -11.347,-11.348 l 0,-31.27 c 0,-6.289 5.062,-11.351 11.347,-11.351 z" /></g><g
       transform="matrix(1,0,0,-1,0,271.52661)"
       id="g15287"><path
         inkscape:connector-curvature="0"
         id="path15289"
         style="fill:#00e7ff;fill-opacity:1;fill-rule:evenodd;stroke:#000000;stroke-width:1.60000002;stroke-linecap:butt;stroke-linejoin:miter;stroke-miterlimit:4;stroke-dasharray:none;stroke-opacity:1"
         d="m 348.148,72.758 47.047,0 c 6.289,0 11.352,5.062 11.352,11.351 l 0,31.27 c 0,6.285 -5.063,11.348 -11.352,11.348 l -47.047,0 c -6.285,0 -11.347,-5.063 -11.347,-11.348 l 0,-31.27 c 0,-6.289 5.062,-11.351 11.347,-11.351 z" /></g><path
       inkscape:connector-curvature="0"
       id="path15327"
       style="fill:#fd6f34;fill-opacity:1;fill-rule:nonzero;stroke:none"
       d="m 556.78121,185.58127 75.316,0 0,-36.113 -75.316,0 0,36.113 z" /><text
       id="text15329"
       style="font-style:oblique;font-variant:normal;font-size:14px;font-family:'DejaVu Sans';-inkscape-font-specification:DejaVuSans-Oblique;writing-mode:lr-tb;fill:#000000;fill-opacity:1;fill-rule:nonzero;stroke:none"
       transform="scale(1,-1)"
       x="573.7821"
       y="-163.60568"><tspan
         id="tspan15331"
         sodipodi:role="line"
         y="-163.60568"
         x="573.7821 584.29608 593.13007 602.70605">HEAD</tspan></text>
<path
       inkscape:connector-curvature="0"
       id="path15333"
       style="fill:#fd6f34;fill-opacity:1;fill-rule:nonzero;stroke:none"
       d="m 556.33122,127.85022 75.316,0 0,-36.112996 -75.316,0 0,36.112996 z" /><text
       id="text15335"
       style="font-style:oblique;font-variant:normal;font-size:14px;font-family:'DejaVu Sans';-inkscape-font-specification:DejaVuSans-Oblique;writing-mode:lr-tb;fill:#000000;fill-opacity:1;fill-rule:nonzero;stroke:none"
       transform="scale(1,-1)"
       x="567.0553"
       y="-105.55812"><tspan
         id="tspan15337"
         sodipodi:role="line"
         y="-105.55812"
         x="567.0553 580.69128 589.25928 596.53931 602.02734 610.63733">master</tspan></text>
<g
       transform="matrix(1,0,0,-1,112,271.52661)"
       id="g15347"><path
         inkscape:connector-curvature="0"
         id="path15349"
         style="fill:none;stroke:#fd6f34;stroke-width:0.80000001;stroke-linecap:butt;stroke-linejoin:miter;stroke-miterlimit:4;stroke-dasharray:none;stroke-opacity:1"
         d="m 482.586,179.383 0.391,36.644" /></g><g
       transform="matrix(-0.0106013,1,1,0.0106013,112,271.52661)"
       id="g15351"><path
         inkscape:connector-curvature="0"
         id="path15353"
         style="fill:#fd6f34;fill-opacity:1;fill-rule:evenodd;stroke:#fd6f34;stroke-width:0.79995501;stroke-linecap:butt;stroke-linejoin:miter;stroke-miterlimit:4;stroke-dasharray:none;stroke-opacity:1"
         d="m -213.127,480.631 3.202,-3.2 -11.198,3.201 11.197,3.201 -3.201,-3.202 z" /></g><path
       inkscape:connector-curvature="0"
       id="path15355"
       style="fill:#fd6f34;fill-opacity:1;fill-rule:nonzero;stroke:none"
       d="m 473.86742,128.34182 75.316,0 0,-36.108999 -75.316,0 0,36.108999 z" /><text
       id="text15357"
       style="font-style:oblique;font-variant:normal;font-size:14px;font-family:'DejaVu Sans';-inkscape-font-specification:DejaVuSans-Oblique;writing-mode:lr-tb;fill:#000000;fill-opacity:1;fill-rule:nonzero;stroke:none"
       transform="scale(1,-1)"
       x="490.58359"
       y="-105.6434"><tspan
         id="tspan15359"
         sodipodi:role="line"
         y="-105.6434"
         x="490.58359 499.45959 508.06958 516.34357 524.95355">devel</tspan></text>
<path
       style="display:inline;fill:none;fill-rule:evenodd;stroke:#fd6f34;stroke-width:0.95999998;stroke-linecap:butt;stroke-linejoin:miter;stroke-miterlimit:4;stroke-dasharray:none;stroke-opacity:1;marker-end:url(#Arrow1Lend)"
       d="m 594.29847,149.46827 -0.16851,-21.61805"
       id="path16018"
       inkscape:connector-type="polyline"
       inkscape:connector-curvature="0"
       inkscape:connection-start="#path15327"
       inkscape:connection-end="#path15333" /><g
       id="g20117"
       transform="matrix(1,0,0,-1,448,271.52661)"><path
         d="m 124.148,216.758 47.047,0 c 6.289,0 11.352,5.062 11.352,11.351 l 0,31.27 c 0,6.285 -5.063,11.348 -11.352,11.348 l -47.047,0 c -6.285,0 -11.347,-5.063 -11.347,-11.348 l 0,-31.27 c 0,-6.289 5.062,-11.351 11.347,-11.351 z"
         style="fill:#00e7ff;fill-opacity:1;fill-rule:evenodd;stroke:#000000;stroke-width:1.60000002;stroke-linecap:butt;stroke-linejoin:miter;stroke-miterlimit:4;stroke-dasharray:none;stroke-opacity:1"
         id="path20119"
         inkscape:connector-curvature="0" /></g><path
       style="fill:none;fill-rule:evenodd;stroke:#fd6f34;stroke-width:0.95999998;stroke-linecap:butt;stroke-linejoin:miter;stroke-miterlimit:4;stroke-dasharray:none;stroke-opacity:1;marker-end:url(#marker21296)"
       d="M 529.93998,92.232821 568.69357,54.236986"
       id="path20392"
       inkscape:connector-type="polyline"
       inkscape:connector-curvature="0"
       inkscape:connection-start="#path15355"
       inkscape:connection-end="#g20117" /><text
       id="text15251"
       style="font-variant:normal;font-weight:normal;font-size:14px;font-family:'DejaVu Sans';-inkscape-font-specification:DejaVuSans;writing-mode:lr-tb;fill:#000000;fill-opacity:1;fill-rule:nonzero;stroke:none"
       x="7.0345559"
       y="-24.989412"
       transform="scale(1,-1)"><tspan
         id="tspan15253"
         sodipodi:role="line"
         x="118.97854 127.85455 136.73055 145.63455 153.32054 162.22456 171.17055 230.92253 239.82658 248.70256 257.60657 262.53455 271.43851 280.34256 343.03455 351.93851 360.81454 369.71857 374.64655 383.55057 392.45459 454.99255 463.89661 472.80054 477.72858 486.63257 495.53656 503.26456">bd9c49b0b3f90b0b3f90b41f16ce</tspan></text>
<text
       id="text15283"
       style="font-variant:normal;font-weight:normal;font-size:14px;font-family:'DejaVu Sans';-inkscape-font-specification:DejaVuSans;writing-mode:lr-tb;fill:#000000;fill-opacity:1;fill-rule:nonzero;stroke:none"
       x="231.03456"
       y="-168.98943"
       transform="scale(1,-1)"><tspan
         id="tspan15285"
         sodipodi:role="line"
         y="-168.98943"
         x="231.03456 235.96257 244.86656 253.77055 262.67456 267.60254 276.50656">f061f93</tspan></text>
<text
       id="text15291"
       style="font-variant:normal;font-weight:normal;font-size:14px;font-family:'DejaVu Sans';-inkscape-font-specification:DejaVuSans;writing-mode:lr-tb;fill:#000000;fill-opacity:1;fill-rule:nonzero;stroke:none"
       x="343.03455"
       y="-168.98943"
       transform="scale(1,-1)"><tspan
         id="tspan15293"
         sodipodi:role="line"
         y="-168.98943"
         x="343.03455 351.91055 356.83853 365.74255 374.64655 382.33258 391.23657">bf67c41</tspan></text>
<text
       y="-24.989412"
       x="567.03461"
       style="font-variant:normal;font-weight:normal;font-size:14px;font-family:'DejaVu Sans';-inkscape-font-specification:DejaVuSans;writing-mode:lr-tb;fill:#000000;fill-opacity:1;fill-rule:nonzero;stroke:none"
       id="text20241"
       transform="scale(1,-1)"><tspan
         sodipodi:role="line"
         id="tspan20243"
         x="567.03461"
         y="-24.989412">54fa32e</tspan></text>
<path
       style="fill:none;fill-rule:evenodd;stroke:#000000;stroke-width:0.96;stroke-linecap:butt;stroke-linejoin:miter;stroke-opacity:1;marker-end:url(#marker6963);stroke-miterlimit:4;stroke-dasharray:none"
       d="m 560.801,27.78411 -42.254,0"
       id="path6924"
       inkscape:connector-type="polyline"
       inkscape:connector-curvature="0"
       inkscape:connection-start="#g20117"
       inkscape:connection-end="#g15235" /><path
       style="fill:none;fill-rule:evenodd;stroke:#000000;stroke-width:0.96;stroke-linecap:butt;stroke-linejoin:miter;stroke-opacity:1;marker-end:url(#marker6940);stroke-miterlimit:4;stroke-dasharray:none"
       d="M 562.36899,49.194476 404.9789,150.37382"
       id="path6926"
       inkscape:connector-type="polyline"
       inkscape:connector-curvature="0"
       inkscape:connection-start="#g20117"
       inkscape:connection-end="#g15287" /><path
       style="fill:none;fill-rule:evenodd;stroke:#000000;stroke-width:0.96;stroke-linecap:butt;stroke-linejoin:miter;stroke-opacity:1;marker-end:url(#marker6943);stroke-miterlimit:4;stroke-dasharray:none"
       d="m 448.801,27.78411 -42.254,0"
       id="path6928"
       inkscape:connector-type="polyline"
       inkscape:connector-curvature="0"
       inkscape:connection-start="#g15235"
       inkscape:connection-end="#g15239" /><path
       style="fill:none;fill-rule:evenodd;stroke:#000000;stroke-width:0.96;stroke-linecap:butt;stroke-linejoin:miter;stroke-opacity:1;marker-end:url(#marker6947);stroke-miterlimit:4;stroke-dasharray:none"
       d="m 336.801,27.78411 -42.254,0"
       id="path6930"
       inkscape:connector-type="polyline"
       inkscape:connector-curvature="0"
       inkscape:connection-start="#g15239"
       inkscape:connection-end="#g15243" /><path
       style="fill:none;fill-rule:evenodd;stroke:#000000;stroke-width:0.96;stroke-linecap:butt;stroke-linejoin:miter;stroke-opacity:1;marker-end:url(#marker6951);stroke-miterlimit:4;stroke-dasharray:none"
       d="m 336.801,171.78411 -42.254,0"
       id="path6932"
       inkscape:connector-type="polyline"
       inkscape:connector-curvature="0"
       inkscape:connection-start="#g15287"
       inkscape:connection-end="#g15279" /><path
       style="fill:none;fill-rule:evenodd;stroke:#000000;stroke-width:0.96;stroke-linecap:butt;stroke-linejoin:miter;stroke-opacity:1;marker-end:url(#marker6955);stroke-miterlimit:4;stroke-dasharray:none"
       d="m 238.68606,144.79961 -70.02412,-90.031"
       id="path6934"
       inkscape:connector-type="polyline"
       inkscape:connector-curvature="0"
       inkscape:connection-start="#g15279"
       inkscape:connection-end="#g15247" /><path
       style="fill:none;fill-rule:evenodd;stroke:#000000;stroke-width:0.96;stroke-linecap:butt;stroke-linejoin:miter;stroke-opacity:1;marker-end:url(#marker6959);stroke-miterlimit:4;stroke-dasharray:none"
       d="m 224.801,27.78411 -42.254,0"
       id="path6938"
       inkscape:connector-type="polyline"
       inkscape:connector-curvature="0"
       inkscape:connection-start="#g15243"
       inkscape:connection-end="#g15247" /></g></svg>